Jessica Horst - Beer_Market
…
Q1c

For each household, calculate the number of beer transactions. For each household, calculate the proportion of each beer brand choice.

q2c <- beer_mkts %>% 
  count(hh, brand) %>% 
  group_by(hh) %>% 
  mutate(n_tot = sum(n)) %>%  # n_tot : the number of beer transactions
  arrange(hh, brand) %>% 
  mutate( prop = n / n_tot ) # prop: the proportion of each beer brand choice

q2c

# A tibble: 13,202 × 5
# Groups:   hh [10,408]
        hh brand           n n_tot  prop
     <dbl> <chr>       <int> <int> <dbl>
 1 2000235 BUD LIGHT       1     1 1    
 2 2000417 COORS LIGHT     8     8 1    
 3 2000711 COORS LIGHT    13    13 1    
 4 2000946 BUD LIGHT       1     2 0.5  
 5 2000946 MILLER LITE     1     2 0.5  
 6 2001521 BUD LIGHT       6    11 0.545
 7 2001521 COORS LIGHT     3    11 0.273
 8 2001521 MILLER LITE     2    11 0.182
 9 2001531 BUSCH LIGHT     1     1 1    
10 2001581 BUSCH LIGHT     5     5 1    
# ℹ 13,192 more rows
…
